{
    "jobapps": [
        {
            "id": 1,
            "name": "Jobapp 1",
            "job": {
                "id": 1,
                "company": {
                    "id": 1,
                    "name": "Company 1",
                    "logo_url": "http://placehold.it/300x300"
                }
            },
            "resume": {
                "id": 1,
                "name": "Resume 1",
                "image_snapshot_url": "http://placehold.it/300x300"
            },
            "updated_at": "2011-09-10 14:44:24 UTC",
            "created_at": "2014-06-10 17:44:24 UTC"
        }
    ]
}